<svg width="512" height="420" xmlns="http://www.w3.org/2000/svg">

 <g>
  <title>background</title>
  <rect fill="none" id="canvas_background" height="422" width="514" y="-1" x="-1"/>
 </g>
 <g>
  <title>Layer 1</title>
  <path stroke="null" id="svg_3" fill="#000000" d="m454.22177,209.39175c0,-108.677104 -88.44397,-197.081287 -197.078511,-197.084988c-0.004626,0 -0.008328,0 -0.012954,0c-108.700236,0.003701 -197.078511,88.47543 -197.078511,197.084988c0,108.798315 88.567033,197.084988 197.084988,197.084988c108.689132,0 197.084988,-88.458775 197.084988,-197.084988zm-369.687949,12.028661l84.194152,0c1.03354,24.068426 5.168623,47.575206 12.207241,70.066952l-76.076656,0c-11.428153,-21.112151 -18.584282,-44.855803 -20.324736,-70.066952zm20.324736,-94.124274l76.076656,0c-7.038617,22.491746 -11.172776,45.998526 -12.207241,70.066952l-84.194152,0c1.740455,-25.211149 8.896583,-48.954801 20.324736,-70.066952zm324.881186,70.066952l-84.194152,0c-1.03354,-24.068426 -5.168623,-47.575206 -12.207241,-70.066952l76.076656,0c11.428153,21.112151 18.584282,44.855803 20.324736,70.066952zm-108.266279,0l-52.308021,0l0,-70.066952l38.83222,0c7.759412,22.356655 12.33678,45.89582 13.475802,70.066952zm-52.308021,-94.124274l0,-47.199541c11.493848,14.710127 21.207455,30.534294 29.04459,47.199541l-29.04459,0zm-24.057322,0l-29.04459,0c7.837135,-16.666173 17.550742,-32.489414 29.04459,-47.199541l0,47.199541zm0,24.057322l0,70.066952l-52.308021,0c1.139022,-24.171132 5.71639,-47.710297 13.475802,-70.066952l38.83222,0zm-52.308021,94.124274l52.308021,0l0,70.066952l-38.83222,0c-7.759412,-22.356655 -12.33678,-45.89582 -13.475802,-70.066952zm52.308021,94.124274l0,47.199541c-11.493848,-14.710127 -21.207455,-30.534294 -29.04459,-47.199541l29.04459,0zm24.057322,0l29.04459,0c-7.837135,16.666173 -17.550742,32.489414 -29.04459,47.199541l0,-47.199541zm0,-24.057322l0,-70.066952l52.308021,0c-1.139022,24.171132 -5.71639,47.710297 -13.475802,70.066952l-38.83222,0zm76.380148,-70.066952l84.194152,0c-1.739529,25.211149 -8.896583,48.954801 -20.323811,70.066952l-76.076656,0c7.037692,-22.491746 11.17185,-45.998526 12.206315,-70.066952zm48.134076,-118.181596l-69.136118,0c-9.669193,-22.992323 -22.531533,-44.645764 -38.349223,-64.421808c43.462329,7.380972 81.456243,31.017291 107.485341,64.421808zm-165.601355,-64.421808c-15.81769,19.77697 -28.679104,41.43041 -38.348297,64.421808l-69.135193,0c26.028172,-33.404517 64.022087,-57.040837 107.48349,-64.421808zm-107.484416,276.727679l69.135193,0c9.669193,22.992323 22.531533,44.645764 38.349223,64.421808c-43.461404,-7.380972 -81.455318,-31.017291 -107.484416,-64.421808zm165.601355,64.421808c15.81769,-19.77697 28.679104,-41.43041 38.349223,-64.421808l69.135193,0c-26.029098,33.404517 -64.023012,57.040837 -107.484416,64.421808z"/>
 </g>
</svg>