<svg width="24" height="24" xmlns="http://www.w3.org/2000/svg">
 <g>
  <title>background</title>
  <rect x="-1" y="-1" width="26" height="26" id="canvas_background" fill="none"/>
 </g>

 <g>
  <title>Layer 1</title>
  <path stroke="null" d="m23.596767,12.01675c0,-6.422686 -5.226932,-11.647267 -11.647103,-11.647486c-0.000274,0 -0.000492,0 -0.000765,0c-6.424053,0.000219 -11.647103,5.228791 -11.647103,11.647486c0,6.42985 5.234206,11.647486 11.647486,11.647486c6.423397,0 11.647486,-5.227807 11.647486,-11.647486zm-21.848113,0.710879l4.975773,0c0.061081,1.422415 0.30546,2.811638 0.721433,4.140872l-4.496039,0c-0.67539,-1.247703 -1.098309,-2.650924 -1.201168,-4.140872zm1.201168,-5.562631l4.496039,0c-0.415973,1.329235 -0.660297,2.718457 -0.721433,4.140872l-4.975773,0c0.102859,-1.489949 0.525777,-2.89317 1.201168,-4.140872zm19.200087,4.140872l-4.975773,0c-0.061081,-1.422415 -0.305459,-2.811638 -0.721433,-4.140872l4.496039,0c0.67539,1.247703 1.098309,2.650924 1.201167,4.140872zm-6.398407,0l-3.091341,0l0,-4.140872l2.294937,0c0.458572,1.321251 0.729089,2.712388 0.796404,4.140872zm-3.091341,-5.562631l0,-2.789437c0.679273,0.869351 1.253335,1.80454 1.7165,2.789437l-1.7165,0zm-1.421759,0l-1.7165,0c0.463166,-0.984951 1.037228,-1.920086 1.7165,-2.789437l0,2.789437zm0,1.421759l0,4.140872l-3.091341,0c0.067315,-1.428485 0.337832,-2.819621 0.796404,-4.140872l2.294937,0zm-3.091341,5.562631l3.091341,0l0,4.140872l-2.294937,0c-0.458572,-1.321251 -0.729089,-2.712388 -0.796404,-4.140872zm3.091341,5.562632l0,2.789436c-0.679273,-0.869351 -1.253335,-1.80454 -1.7165,-2.789436l1.7165,0zm1.421759,0l1.7165,0c-0.463165,0.984951 -1.037228,1.920085 -1.7165,2.789436l0,-2.789436zm0,-1.421759l0,-4.140872l3.091341,0c-0.067315,1.428485 -0.337832,2.819621 -0.796404,4.140872l-2.294937,0zm4.513975,-4.140872l4.975773,0c-0.102804,1.489949 -0.525777,2.89317 -1.201113,4.140872l-4.496039,0c0.415919,-1.329235 0.660243,-2.718457 0.721378,-4.140872zm2.844666,-6.98439l-4.085862,0c-0.571437,-1.358819 -1.331586,-2.638511 -2.266393,-3.807251c2.568571,0.436206 4.813966,1.833085 6.352254,3.807251zm-9.786841,-3.807251c-0.934806,1.168795 -1.6949,2.448487 -2.266338,3.807251l-4.085807,0c1.538234,-1.974167 3.783629,-3.371045 6.352145,-3.807251zm-6.352199,16.354273l4.085807,0c0.571437,1.358818 1.331586,2.638511 2.266393,3.807251c-2.568516,-0.436206 -4.813911,-1.833085 -6.352199,-3.807251zm9.786841,3.807251c0.934806,-1.168795 1.6949,-2.448487 2.266393,-3.807251l4.085807,0c-1.538289,1.974166 -3.783683,3.371044 -6.3522,3.807251z" fill="#000000" id="svg_3"/>
 </g>
</svg>