<svg width="386" height="386" xmlns="http://www.w3.org/2000/svg">
 <style type="text/css">
  <![CDATA[
	.st0{fill-rule:evenodd;clip-rule:evenodd;}
]]>
 </style>

 <g>
  <title>background</title>
  <rect fill="none" id="canvas_background" height="388" width="388" y="-1" x="-1"/>
 </g>
 <g>
  <title>Layer 1</title>
  <g id="svg_1">
   <g id="svg_2">
    <path id="svg_3" d="m119.8,321l0,-171.1l-54.9,0l0,171.1l54.9,0l0,0zm-25.4,-197c18.3,0 29.7,-13.1 29.7,-29.5c-0.3,-16.7 -11.4,-29.5 -29.4,-29.5c-18,0 -29.7,12.8 -29.7,29.5c0,16.4 11.4,29.5 29,29.5l0.4,0l0,0z" class="st0"/>
    <path id="svg_4" d="m257.6,146c-29.1,0 -41.6,16.4 -49.6,27.8l0,-23.8l-55,0l0,171l55,0l0,-97.4c0,-5 0.4,-10 1.9,-13.5c4,-10 13,-20.3 28.2,-20.3c19.9,0 27.9,15.3 27.9,37.7l0,93.5l55,0l0,-99.9c0,-51.3 -27.2,-75.1 -63.4,-75.1z" class="st0"/>
   </g>
   <path id="svg_5" d="m354.2,1l-320.4,0c-17.5,0 -32.8,12.6 -32.8,29.9l0,321.1c0,17.4 15.3,32.9 32.8,32.9l320.3,0c17.6,0 30.8,-15.6 30.8,-32.9l0,-321.1c0.1,-17.3 -13.2,-29.9 -30.7,-29.9zm-3.2,352c-1.1,0 -313.1,0 -314.9,0s-3.1,-1.4 -3.1,-3.1s0,-313.8 0,-314.9s1,-2 2,-2s315,0 316,0s2,1 2,2c0,23.3 0,314.9 0,316c0,0.9 -0.9,2 -2,2z"/>
  </g>
 </g>
</svg>