<svg width="24" height="24" xmlns="http://www.w3.org/2000/svg">

 <g>
  <title>background</title>
  <rect fill="none" id="canvas_background" height="402" width="582" y="-1" x="-1"/>
 </g>
 <g>
  <title>Layer 1</title>
  <rect stroke-width="3" stroke="#000" id="svg_2" height="23.12847" width="23.072603" y="0.463697" x="0.463698" fill-opacity="null" stroke-opacity="null" fill="none"/>
  <path stroke="#000" id="svg_1" stroke-width="2" stroke-linejoin="round" stroke-linecap="round" fill="none" d="m19.412826,13.720712l-7.462532,5.423474l-7.462532,-5.423474a0.588594,0.588594 0 0 1 -0.210212,-0.658665l0.854863,-2.648673l1.709726,-5.262311a0.294297,0.294297 0 0 1 0.077078,-0.112113a0.301304,0.301304 0 0 1 0.40641,0a0.294297,0.294297 0 0 1 0.077078,0.126127l1.709726,5.248297l5.675728,0l1.709726,-5.262311a0.294297,0.294297 0 0 1 0.077078,-0.112113a0.301304,0.301304 0 0 1 0.40641,0a0.294297,0.294297 0 0 1 0.077078,0.126127l1.709726,5.262311l0.889898,2.634659a0.588594,0.588594 0 0 1 -0.245248,0.658665z"/>
 </g>
</svg>