<svg width="1792" height="1412" xmlns="http://www.w3.org/2000/svg" preserveAspectRatio="xMidYMid meet">

 <g>
  <title>background</title>
  <rect fill="none" id="canvas_background" height="1414" width="1794" y="-1" x="-1"/>
 </g>
 <g>
  <title>Layer 1</title>
  <path id="svg_1" d="m1664,1250.289529l0,-768c-21.333,24 -44.333,46 -69,66c-178.667,137.333 -320.667,250 -426,338c-34,28.667 -61.667,51 -83,67s-50.167,32.167 -86.5,48.5c-36.333,16.333 -70.5,24.5 -102.5,24.5l-1,0l-1,0c-32,0 -66.167,-8.167 -102.5,-24.5s-65.167,-32.5 -86.5,-48.5s-49,-38.333 -83,-67c-105.333,-88 -247.333,-200.667 -426,-338c-24.667,-20 -47.667,-42 -69,-66l0,768c0,8.667 3.167,16.167 9.5,22.5s13.833,9.5 22.5,9.5l1472,0c8.667,0 16.167,-3.167 22.5,-9.5s9.5,-13.833 9.5,-22.5zm0,-1051l0,-11l0,-13.5c0,0 -0.167,-4.333 -0.5,-13s-1.333,-12.833 -3,-12.5s-3.5,-2.667 -5.5,-9s-5,-8.833 -9,-7.5s-8.667,0.5 -14,-2.5l-1472,0c-8.667,0 -16.167,3.167 -22.5,9.5s-9.5,13.833 -9.5,22.5c0,112 49,206.667 147,284c128.667,101.333 262.333,207 401,317c4,3.333 15.667,13.167 35,29.5s34.667,28.833 46,37.5s26.167,19.167 44.5,31.5s35.167,21.5 50.5,27.5s29.667,9 43,9l1,0l1,0c13.333,0 27.667,-3 43,-9s32.167,-15.167 50.5,-27.5s33.167,-22.833 44.5,-31.5c11.333,-8.667 26.667,-21.167 46,-37.5s31,-26.167 35,-29.5c138.667,-110 272.333,-215.667 401,-317c36,-28.667 69.5,-67.167 100.5,-115.5s46.5,-92.167 46.5,-131.5zm128,-37l0,1088c0,44 -15.667,81.667 -47,113s-69,47 -113,47l-1472,0c-44,0 -81.667,-15.667 -113,-47s-47,-69 -47,-113l0,-1088c0,-44 15.667,-81.667 47,-113s69,-47 113,-47l1472,0c44,0 81.667,15.667 113,47s47,69 47,113z"/>
 </g>
</svg>