<svg width="1280" height="1544" xmlns="http://www.w3.org/2000/svg" preserveAspectRatio="xMidYMid meet">

 <g>
  <title>background</title>
  <rect fill="none" id="canvas_background" height="1546" width="1282" y="-1" x="-1"/>
 </g>
 <g>
  <title>Layer 1</title>
  <path id="svg_1" d="m1024,1060.000721l0,64c0,9.333 -3,17 -9,23s-13.667,9 -23,9l-704,0c-9.333,0 -17,-3 -23,-9s-9,-13.667 -9,-23l0,-64c0,-9.333 3,-17 9,-23s13.667,-9 23,-9l704,0c9.333,0 17,3 23,9s9,13.667 9,23zm0,-256l0,64c0,9.333 -3,17 -9,23s-13.667,9 -23,9l-704,0c-9.333,0 -17,-3 -23,-9s-9,-13.667 -9,-23l0,-64c0,-9.333 3,-17 9,-23s13.667,-9 23,-9l704,0c9.333,0 17,3 23,9s9,13.667 9,23zm-896,608l1024,0l0,-768l-416,0c-26.667,0 -49.333,-9.333 -68,-28s-28,-41.333 -28,-68l0,-416l-512,0l0,1280zm640,-896l376,0c-6.667,-19.333 -14,-33 -22,-41l-313,-313c-8,-8 -21.667,-15.333 -41,-22l0,376zm512,32l0,896c0,26.667 -9.333,49.333 -28,68s-41.333,28 -68,28l-1088,0c-26.667,0 -49.333,-9.333 -68,-28s-28,-41.333 -28,-68l0,-1344c0,-26.667 9.333,-49.333 28,-68s41.333,-28 68,-28l640,0c26.667,0 56,6.667 88,20s57.333,29.333 76,48l312,312c18.667,18.667 34.667,44 48,76s20,61.333 20,88z"/>
 </g>
</svg>